600.0
600.0
500.0
500.0
800.0
800.0
700.0
700.0
1000.0
1000.0
1300.0
1300.0
1200.0
1200.0
1100.0
1100.0
1000.0
1000.0
900.0
900.0
800.0
800.0
700.0
700.0
600.0
600.0
900.0
900.0
1200.0
1200.0
1100.0
1100.0
1000.0
1000.0
1300.0
1300.0
1300.0
1300.0
1200.0
1200.0
1100.0
1100.0
1000.0
1000.0
900.0
900.0
