Devices,Alpa,Alpa-FS,Sensitivity
4,1.2106845703165117,1.2006845703165117,1.2206845703165117
6,0.8716459650768431,0.9743595332799881,0.995893523232414
8,0.7109542142177325,0.9343595332799881,0.9802309275621855
10,0.729992819457401,0.9343595332799881,0.9762938962626686
12,0.7191059757482763,0.9343595332799881,0.9771259509680563
14,0.7110608592217103,0.9343595332799881,0.9792109213319581
